Tables for Epidemiological Analysis • epitabulate
…
linelist <- epidict::gen_data("Measles", numcases = 1000, org = "MSF")
measles_dict <- epidict::msf_dict("Measles", compact = FALSE)

# Cleaning linelist data
linelist_clean <- matchmaker::match_df(
  x = linelist,
  dictionary = measles_dict,
  from = "option_code",
  to = "option_name",
  by = "data_element_shortname",
  order = "option_order_in_set"
)
linelist_clean
#> # A tibble: 1,000 x 52
#>    seizure_episodes trimester croup dehydration_lev… residential_sta… previously_vacc…
#>    <fct>            <fct>     <fct> <fct>            <fct>            <fct>           
#>  1 Yes              <NA>      Yes   Unknown          Refugee          Yes - vaccinati…
#>  2 No               <NA>      No    Severe           Migrant          No              
#>  3 Yes              <NA>      Yes   Unknown          Refugee          Yes - verbal    
#>  4 No               <NA>      No    Severe           Migrant          No              
#>  5 Yes              <NA>      No    Some             Unspecified      Unsure          
#>  6 Yes              <NA>      Yes   None             Migrant          Yes - verbal    
#>  7 Yes              <NA>      No    Severe           Unspecified      Yes - vaccinati…
#>  8 No               3rd trim… No    Some             Resident         Yes - vaccinati…
#>  9 No               2nd trim… Yes   Some             Refugee          No              
#> 10 Yes              <NA>      No    Severe           Unspecified      Yes - vaccinati…
#> # … with 990 more rows, and 46 more variables: patient_origin_free_text <chr>, age_days <int>,
#> #   msf_involvement <fct>, nutrition_status_at_admission <fct>, fever <fct>, sex <fct>,
#> #   patient_origin <chr>, pregnancy_outcome_at_exit <fct>, prescribed_vitamin_a <fct>,
#> #   date_of_exit <date>, date_of_consultation_admission <date>, event_file_type <fct>,
#> #   residential_status_brief <fct>, other_eye_complications <fct>, treatment_facility_site <chr>,
#> #   prescribed_antibiotics <fct>, treatment_location <chr>, date_of_onset <date>,
#> #   exit_status <fct>, treatment_facility_name <lgl>, severe_oral_lesions <fct>, candidiasis <fct>,
#> #   time_to_death <fct>, malaria_rdt_at_admission <fct>, patient_facility_type <fct>,
#> #   previous_vaccine_doses_received <fct>, age_years <int>, arrival_date_in_area_if_3m <date>,
…
2x2 tables

In R, creating 2x2 tables is as simple as using the function table(), but unfortunately, it can be difficult to interpret the values of these tables because the dimensions are often flipped around for different analyses. The function data_frame_from_2x2() will present these values labeled unambiguously.

symptoms_tf <- linelist_clean %>%
  dplyr::transmute(
    pneumonia = grepl("Yes", pneumonia),
    cough = grepl("Yes", cough),
    nasal_discharge = grepl("Yes", nasal_discharge),
    oral_lesions = grepl("Yes", severe_oral_lesions),
    contact = grepl("known case", contact_history)
  ) 

symptoms_tf
#> # A tibble: 1,000 x 5
#>    pneumonia cough nasal_discharge oral_lesions contact
#>    <lgl>     <lgl> <lgl>           <lgl>        <lgl>  
#>  1 TRUE      TRUE  FALSE           FALSE        FALSE  
#>  2 TRUE      TRUE  TRUE            FALSE        FALSE  
#>  3 FALSE     TRUE  TRUE            TRUE         FALSE  
#>  4 TRUE      FALSE TRUE            FALSE        FALSE  
#>  5 FALSE     FALSE TRUE            FALSE        TRUE   
#>  6 TRUE      FALSE FALSE           FALSE        TRUE   
#>  7 FALSE     FALSE FALSE           TRUE         TRUE   
#>  8 FALSE     TRUE  TRUE            FALSE        TRUE   
#>  9 TRUE      FALSE TRUE            TRUE         TRUE   
#> 10 FALSE     TRUE  TRUE            TRUE         TRUE   
#> # … with 990 more rows
…
