Tables for Epidemiological Analysis • epibuffet
…
linelist <- epidict::gen_data("Measles", numcases = 1000, org = "MSF")
measles_dict <- epidict::msf_dict("Measles", compact = FALSE)

# Cleaning linelist data
linelist_clean <- matchmaker::match_df(
  x = linelist,
  dictionary = measles_dict,
  from = "option_code",
  to = "option_name",
  by = "data_element_shortname",
  order = "option_order_in_set"
)
linelist_clean
#> # A tibble: 1,000 x 52
#>    seizure_episodes trimester croup dehydration_lev… residential_sta…
#>    <fct>            <fct>     <fct> <fct>            <fct>           
#>  1 No               <NA>      No    Severe           Migrant         
#>  2 Yes              <NA>      Yes   None             Migrant         
#>  3 Yes              <NA>      Yes   Severe           Resident        
#>  4 Yes              <NA>      No    Unknown          Refugee         
#>  5 Yes              <NA>      No    None             Resident        
#>  6 No               <NA>      Yes   Severe           Unspecified     
#>  7 Yes              3rd trim… No    Severe           Internally Disp…
#>  8 No               <NA>      No    None             Refugee         
#>  9 Yes              <NA>      Yes   Unknown          Internally Disp…
#> 10 No               <NA>      No    None             Refugee         
#> # … with 990 more rows, and 47 more variables:
#> #   previously_vaccinated <fct>, patient_origin_free_text <chr>,
#> #   age_days <int>, msf_involvement <fct>,
#> #   nutrition_status_at_admission <fct>, fever <fct>, sex <fct>,
#> #   patient_origin <chr>, pregnancy_outcome_at_exit <fct>,
#> #   prescribed_vitamin_a <fct>, date_of_exit <date>,
#> #   date_of_consultation_admission <date>, event_file_type <fct>,
#> #   residential_status_brief <fct>, other_eye_complications <fct>,
#> #   treatment_facility_site <chr>, prescribed_antibiotics <fct>,
…
Odds / Risk / Incidence Rate Ratios

symptoms_tf <- linelist_clean %>%
  dplyr::transmute(
    pneumonia = grepl("Yes", pneumonia),
    cough = grepl("Yes", cough),
    nasal_discharge = grepl("Yes", nasal_discharge),
    oral_lesions = grepl("Yes", severe_oral_lesions),
    contact = grepl("known case", contact_history)
  ) 

symptoms_tf
#> # A tibble: 1,000 x 5
#>    pneumonia cough nasal_discharge oral_lesions contact
#>    <lgl>     <lgl> <lgl>           <lgl>        <lgl>  
#>  1 FALSE     FALSE FALSE           FALSE        TRUE   
#>  2 TRUE      TRUE  FALSE           FALSE        FALSE  
#>  3 TRUE      TRUE  FALSE           FALSE        FALSE  
#>  4 FALSE     FALSE TRUE            TRUE         FALSE  
#>  5 TRUE      TRUE  FALSE           FALSE        TRUE   
#>  6 TRUE      FALSE FALSE           TRUE         FALSE  
#>  7 TRUE      FALSE TRUE            TRUE         TRUE   
#>  8 TRUE      FALSE TRUE            TRUE         FALSE  
#>  9 FALSE     FALSE TRUE            FALSE        TRUE   
#> 10 TRUE      FALSE TRUE            TRUE         TRUE   
#> # … with 990 more rows
…
